Not using cached read wrapper
Started task graph with 5 named threads and 23 total threads with 3 sets of task threads.
Stats thread started at 3.916338
ICU TimeZone Detection - Raw Offset: +3:00, Platform Override: ''
Loading text-based GConfig....
Mounting plugin MeshPainting
Mounting plugin XGEController
Mounting plugin AISupport
Mounting plugin EnvironmentQueryEditor
Mounting plugin LiveLink
Mounting plugin LightPropagationVolume
Mounting plugin CameraShakePreviewer
Mounting plugin GameplayCameras
Mounting plugin OodleData
Mounting plugin OodleNetwork
Mounting plugin DatasmithContent
Mounting plugin Paper2D
Mounting plugin VariantManagerContent
Mounting plugin Niagara
Mounting plugin UdpMessaging
Mounting plugin TcpMessaging
Mounting plugin AssetManagerEditor
Mounting plugin CryptoKeys
Mounting plugin CurveEditorTools
Mounting plugin DataValidation
Mounting plugin FacialAnimation
Mounting plugin GameplayTagsEditor
Mounting plugin GeometryMode
Mounting plugin MaterialAnalyzer
Mounting plugin MacGraphicsSwitching
Mounting plugin MobileLauncherProfileWizard
Mounting plugin AnimationSharing
Mounting plugin SpeedTreeImporter
Mounting plugin PluginBrowser
Mounting plugin CodeLiteSourceCodeAccess
Mounting plugin CLionSourceCodeAccess
Mounting plugin GitSourceControl
Mounting plugin KDevelopSourceCodeAccess
Mounting plugin NullSourceCodeAccess
Mounting plugin PerforceSourceControl
Mounting plugin PixWinPlugin
Mounting plugin PlasticSourceControl
Mounting plugin PluginUtils
Mounting plugin RiderSourceCodeAccess
Mounting plugin PropertyAccessNode
Mounting plugin SubversionSourceControl
Mounting plugin TextureFormatOodle
Mounting plugin UObjectPlugin
Mounting plugin VisualStudioCodeSourceCodeAccess
Mounting plugin XCodeSourceCodeAccess
Mounting plugin VisualStudioSourceCodeAccess
Mounting plugin AndroidMedia
Mounting plugin AvfMedia
Mounting plugin ImgMedia
Mounting plugin MediaCompositing
Mounting plugin MediaPlayerEditor
Mounting plugin LuminPlatformFeatures
Mounting plugin WebMMedia
Mounting plugin WmfMedia
Mounting plugin MagicLeap
Mounting plugin MagicLeapMedia
Mounting plugin MagicLeapLightEstimation
Mounting plugin MLSDK
Mounting plugin MagicLeapPassableWorld
Mounting plugin LauncherChunkInstaller
Mounting plugin ScreenshotTools
Mounting plugin AlembicImporter
Mounting plugin BackChannel
Mounting plugin ChaosCloth
Mounting plugin ChaosEditor
Mounting plugin ChaosClothEditor
Mounting plugin ChaosSolverPlugin
Mounting plugin CharacterAI
Mounting plugin ChaosNiagara
Mounting plugin GeometryCache
Mounting plugin AutomationUtils
Mounting plugin GeometryProcessing
Mounting plugin GeometryCollectionPlugin
Mounting plugin OpenImageDenoise
Mounting plugin PlanarCut
Mounting plugin PlatformCrypto
Mounting plugin ProxyLODPlugin
Mounting plugin SkeletalReduction
Mounting plugin MotoSynth
Mounting plugin PythonScriptPlugin
Mounting plugin OnlineSubsystem
Mounting plugin OnlineSubsystemNull
Mounting plugin ActorSequence
Mounting plugin OnlineSubsystemUtils
Mounting plugin MatineeToLevelSequence
Mounting plugin TemplateSequence
Mounting plugin LevelSequenceEditor
Mounting plugin Takes
Mounting plugin ActorLayerUtilities
Mounting plugin AndroidMoviePlayer
Mounting plugin AndroidPermission
Mounting plugin AndroidDeviceProfileSelector
Mounting plugin AppleImageUtils
Mounting plugin AppleMoviePlayer
Mounting plugin ArchVisCharacter
Mounting plugin AssetTags
Mounting plugin AudioCapture
Mounting plugin AudioSynesthesia
Mounting plugin CableComponent
Mounting plugin ChunkDownloader
Mounting plugin CustomMeshComponent
Mounting plugin EditableMesh
Mounting plugin ExampleDeviceProfileSelector
Mounting plugin GoogleCloudMessaging
Mounting plugin GooglePAD
Mounting plugin IOSDeviceProfileSelector
Mounting plugin LinuxDeviceProfileSelector
Mounting plugin LocationServicesBPLibrary
Mounting plugin MobilePatchingUtils
Mounting plugin OpenXR
Mounting plugin OpenXREyeTracker
Mounting plugin OpenXRHandTracking
Mounting plugin PhysXVehicles
Mounting plugin PostSplashScreen
Mounting plugin ProceduralMeshComponent
Mounting plugin PropertyAccessEditor
Mounting plugin RuntimePhysXCooking
Mounting plugin SignificanceManager
Mounting plugin SoundFields
Mounting plugin Synthesis
Mounting plugin WebMMoviePlayer
Mounting plugin WindowsMoviePlayer
Mounting plugin ContentBrowserAssetDataSource
Mounting plugin ContentBrowserClassDataSource
Mounting plugin ContentBrowserFileDataSource
Mounting plugin OnlineSubsystemGooglePlay
Mounting plugin OnlineSubsystemIOS
Mounting plugin OculusVR
Mounting plugin SteamVR
PIX capture plugin failed to initialize! Check that the process is launched from PIX.
Using libcurl 7.55.1-DEV
 - built for x86_64-pc-win32
 - supports SSL with OpenSSL/1.1.1
 - supports HTTP deflate (compression) using libz 1.2.8
 - other features:
     CURL_VERSION_SSL
     CURL_VERSION_LIBZ
     CURL_VERSION_IPV6
     CURL_VERSION_ASYNCHDNS
     CURL_VERSION_LARGEFILE
     CURL_VERSION_IDN
 CurlRequestOptions (configurable via config and command line):
 - bVerifyPeer = true  - Libcurl will verify peer certificate
 - bUseHttpProxy = false  - Libcurl will NOT use HTTP proxy
 - bDontReuseConnections = false  - Libcurl will reuse connections
 - MaxHostConnections = 16  - Libcurl will limit the number of connections to a host
 - LocalHostAddr = Default
 - BufferSize = 65536
OSS: Creating online subsystem instance for: NULL
WinSock: version 1.1 (2.2), MaxSocks=32767, MaxUdp=65467
OSS: TryLoadSubsystemAndSetDefault: Loaded subsystem for module [NULL]
OculusPlugin initialized successfully
Failed initializing OVRPlugin 1.59.0
Build: ++UE4+Release-4.27-CL-18319896
Engine Version: 4.27.2-18319896+++UE4+Release-4.27
Compatible Engine Version: 4.27.0-17155196+++UE4+Release-4.27
Net CL: 17155196
OS: Windows 10 (Release 2009) (), CPU: Intel(R) Core(TM) i7-6700K CPU @ 4.00GHz, GPU: NVIDIA GeForce GTX 1060 6GB
Compiled (64-bit): Nov 30 2021 07:12:08
Compiled with Visual C++: 19.24.28315.00
Build Configuration: Development
Branch Name: ++UE4+Release-4.27
Command Line: 
Base Directory: D:/UE_4.27/Engine/Binaries/Win64/
Allocator: TBB
Installed Engine Build: 1
Number of dev versions registered: 29
  Dev-Blueprints (B0D832E4-1F89-4F0D-ACCF-7EB736FD4AA2): 10
  Dev-Build (E1C64328-A22C-4D53-A36C-8E866417BD8C): 0
  Dev-Core (375EC13C-06E4-48FB-B500-84F0262A717E): 4
  Dev-Editor (E4B068ED-F494-42E9-A231-DA0B2E46BB41): 40
  Dev-Framework (CFFC743F-43B0-4480-9391-14DF171D2073): 37
  Dev-Mobile (B02B49B5-BB20-44E9-A304-32B752E40360): 3
  Dev-Networking (A4E4105C-59A1-49B5-A7C5-40C4547EDFEE): 0
  Dev-Online (39C831C9-5AE6-47DC-9A44-9C173E1C8E7C): 0
  Dev-Physics (78F01B33-EBEA-4F98-B9B4-84EACCB95AA2): 14
  Dev-Platform (6631380F-2D4D-43E0-8009-CF276956A95A): 0
  Dev-Rendering (12F88B9F-8875-4AFC-A67C-D90C383ABD29): 45
  Dev-Sequencer (7B5AE74C-D270-4C10-A958-57980B212A5A): 13
  Dev-VR (D7296918-1DD6-4BDD-9DE2-64A83CC13884): 3
  Dev-LoadTimes (C2A15278-BFE7-4AFE-6C17-90FF531DF755): 1
  Private-Geometry (6EACA3D4-40EC-4CC1-B786-8BED09428FC5): 3
  Dev-AnimPhys (29E575DD-E0A3-4627-9D10-D276232CDCEA): 17
  Dev-Anim (AF43A65D-7FD3-4947-9873-3E8ED9C1BB05): 15
  Dev-ReflectionCapture (6B266CEC-1EC7-4B8F-A30B-E4D90942FC07): 1
  Dev-Automation (0DF73D61-A23F-47EA-B727-89E90C41499A): 1
  FortniteMain (601D1886-AC64-4F84-AA16-D3DE0DEAC7D6): 47
  FortniteRelease (E7086368-6B23-4C58-8439-1B7016265E91): 1
  Dev-Enterprise (9DFFBCD6-494F-0158-E221-12823C92A888): 10
  Dev-Niagara (F2AED0AC-9AFE-416F-8664-AA7FFA26D6FC): 1
  Dev-Destruction (174F1F0B-B4C6-45A5-B13F-2EE8D0FB917D): 10
  Dev-Physics-Ext (35F94A83-E258-406C-A318-09F59610247C): 41
  Dev-PhysicsMaterial-Chaos (B68FC16E-8B1B-42E2-B453-215C058844FE): 1
  Dev-CineCamera (B2E18506-4273-CFC2-A54E-F4BB758BBA07): 1
  Dev-VirtualProduction (64F58936-FD1B-42BA-BA96-7289D5D0FA4E): 1
  Dev-MediaFramework (6F0ED827-A609-4895-9C91-998D90180EA4): 2
Presizing for max 25165824 objects, including 0 objects not considered by GC, pre-allocating 0 bytes for permanent pool.
Applying CVar settings from Section [/Script/Engine.StreamingSettings] File [D:/uk/TPS/Saved/Config/Windows/Engine.ini]
Setting CVar [[s.MinBulkDataSizeForAsyncLoading:131072]]
Setting CVar [[s.AsyncLoadingThreadEnabled:0]]
Setting CVar [[s.EventDrivenLoaderEnabled:1]]
Setting CVar [[s.WarnIfTimeLimitExceeded:0]]
Setting CVar [[s.TimeLimitExceededMultiplier:1.5]]
Setting CVar [[s.TimeLimitExceededMinTime:0.005]]
Setting CVar [[s.UseBackgroundLevelStreaming:1]]
Setting CVar [[s.PriorityAsyncLoadingExtraTime:15.0]]
Setting CVar [[s.LevelStreamingActorsUpdateTimeLimit:5.0]]
Setting CVar [[s.PriorityLevelStreamingActorsUpdateExtraTime:5.0]]
Setting CVar [[s.LevelStreamingComponentsRegistrationGranularity:10]]
Setting CVar [[s.UnregisterComponentsTimeLimit:1.0]]
Setting CVar [[s.LevelStreamingComponentsUnregistrationGranularity:5]]
Setting CVar [[s.FlushStreamingOnExit:1]]
Object subsystem initialized
Setting CVar [[con.DebugEarlyDefault:1]]
Setting CVar [[r.setres:1280x720]]
Setting CVar [[r.VSync:0]]
Setting CVar [[r.RHICmdBypass:0]]
Applying CVar settings from Section [/Script/Engine.RendererSettings] File [D:/uk/TPS/Saved/Config/Windows/Engine.ini]
Setting CVar [[r.GPUCrashDebugging:0]]
Applying CVar settings from Section [/Script/Engine.RendererOverrideSettings] File [D:/uk/TPS/Saved/Config/Windows/Engine.ini]
Applying CVar settings from Section [/Script/Engine.StreamingSettings] File [D:/uk/TPS/Saved/Config/Windows/Engine.ini]
Setting CVar [[s.MinBulkDataSizeForAsyncLoading:131072]]
Setting CVar [[s.AsyncLoadingThreadEnabled:0]]
Setting CVar [[s.EventDrivenLoaderEnabled:1]]
Setting CVar [[s.WarnIfTimeLimitExceeded:0]]
Setting CVar [[s.TimeLimitExceededMultiplier:1.5]]
Setting CVar [[s.TimeLimitExceededMinTime:0.005]]
Setting CVar [[s.UseBackgroundLevelStreaming:1]]
Setting CVar [[s.PriorityAsyncLoadingExtraTime:15.0]]
Setting CVar [[s.LevelStreamingActorsUpdateTimeLimit:5.0]]
Setting CVar [[s.PriorityLevelStreamingActorsUpdateExtraTime:5.0]]
Setting CVar [[s.LevelStreamingComponentsRegistrationGranularity:10]]
Setting CVar [[s.UnregisterComponentsTimeLimit:1.0]]
Setting CVar [[s.LevelStreamingComponentsUnregistrationGranularity:5]]
Setting CVar [[s.FlushStreamingOnExit:1]]
Applying CVar settings from Section [/Script/Engine.GarbageCollectionSettings] File [D:/uk/TPS/Saved/Config/Windows/Engine.ini]
Setting CVar [[gc.MaxObjectsNotConsideredByGC:1]]
Setting CVar [[gc.SizeOfPermanentObjectPool:0]]
Setting CVar [[gc.FlushStreamingOnGC:0]]
Setting CVar [[gc.NumRetriesBeforeForcingGC:10]]
Setting CVar [[gc.AllowParallelGC:1]]
Setting CVar [[gc.TimeBetweenPurgingPendingKillObjects:61.1]]
Setting CVar [[gc.MaxObjectsInEditor:25165824]]
Setting CVar [[gc.IncrementalBeginDestroyEnabled:1]]
Setting CVar [[gc.CreateGCClusters:1]]
Setting CVar [[gc.MinGCClusterSize:5]]
Setting CVar [[gc.ActorClusteringEnabled:0]]
Setting CVar [[gc.BlueprintClusteringEnabled:0]]
Setting CVar [[gc.UseDisregardForGCOnDedicatedServers:0]]
Setting CVar [[gc.MultithreadedDestructionEnabled:1]]
Applying CVar settings from Section [/Script/Engine.NetworkSettings] File [D:/uk/TPS/Saved/Config/Windows/Engine.ini]
Applying CVar settings from Section [/Script/UnrealEd.CookerSettings] File [D:/uk/TPS/Saved/Config/Windows/Engine.ini]
Applying CVar settings from Section [ViewDistanceQuality@3] File [D:/uk/TPS/Saved/Config/Windows/Scalability.ini]
Setting CVar [[r.SkeletalMeshLODBias:0]]
Setting CVar [[r.ViewDistanceScale:1.0]]
Applying CVar settings from Section [AntiAliasingQuality@3] File [D:/uk/TPS/Saved/Config/Windows/Scalability.ini]
Setting CVar [[r.PostProcessAAQuality:4]]
Applying CVar settings from Section [ShadowQuality@3] File [D:/uk/TPS/Saved/Config/Windows/Scalability.ini]
Setting CVar [[r.LightFunctionQuality:1]]
Setting CVar [[r.ShadowQuality:5]]
Setting CVar [[r.Shadow.CSM.MaxCascades:10]]
Setting CVar [[r.Shadow.MaxResolution:2048]]
Setting CVar [[r.Shadow.MaxCSMResolution:2048]]
Setting CVar [[r.Shadow.RadiusThreshold:0.01]]
Setting CVar [[r.Shadow.DistanceScale:1.0]]
Setting CVar [[r.Shadow.CSM.TransitionScale:1.0]]
Setting CVar [[r.Shadow.PreShadowResolutionFactor:1.0]]
Setting CVar [[r.DistanceFieldShadowing:1]]
Setting CVar [[r.DistanceFieldAO:1]]
Setting CVar [[r.AOQuality:2]]
Setting CVar [[r.VolumetricFog:1]]
Setting CVar [[r.VolumetricFog.GridPixelSize:8]]
Setting CVar [[r.VolumetricFog.GridSizeZ:128]]
Setting CVar [[r.VolumetricFog.HistoryMissSupersampleCount:4]]
Setting CVar [[r.LightMaxDrawDistanceScale:1]]
Setting CVar [[r.CapsuleShadows:1]]
Applying CVar settings from Section [PostProcessQuality@3] File [D:/uk/TPS/Saved/Config/Windows/Scalability.ini]
Setting CVar [[r.MotionBlurQuality:4]]
Setting CVar [[r.AmbientOcclusionMipLevelFactor:0.4]]
Setting CVar [[r.AmbientOcclusionMaxQuality:100]]
Setting CVar [[r.AmbientOcclusionLevels:-1]]
Setting CVar [[r.AmbientOcclusionRadiusScale:1.0]]
Setting CVar [[r.DepthOfFieldQuality:2]]
Setting CVar [[r.RenderTargetPoolMin:400]]
Setting CVar [[r.LensFlareQuality:2]]
Setting CVar [[r.SceneColorFringeQuality:1]]
Setting CVar [[r.EyeAdaptationQuality:2]]
Setting CVar [[r.BloomQuality:5]]
Setting CVar [[r.FastBlurThreshold:100]]
Setting CVar [[r.Upscale.Quality:3]]
Setting CVar [[r.Tonemapper.GrainQuantization:1]]
Setting CVar [[r.LightShaftQuality:1]]
Setting CVar [[r.Filter.SizeScale:1]]
Setting CVar [[r.Tonemapper.Quality:5]]
Setting CVar [[r.DOF.Gather.AccumulatorQuality:1        ; higher gathering accumulator quality]]
Setting CVar [[r.DOF.Gather.PostfilterMethod:1          ; Median3x3 postfilering method]]
Setting CVar [[r.DOF.Gather.EnableBokehSettings:0       ; no bokeh simulation when gathering]]
Setting CVar [[r.DOF.Gather.RingCount:4                 ; medium number of samples when gathering]]
Setting CVar [[r.DOF.Scatter.ForegroundCompositing:1    ; additive foreground scattering]]
Setting CVar [[r.DOF.Scatter.BackgroundCompositing:2    ; additive background scattering]]
Setting CVar [[r.DOF.Scatter.EnableBokehSettings:1      ; bokeh simulation when scattering]]
Setting CVar [[r.DOF.Scatter.MaxSpriteRatio:0.1         ; only a maximum of 10% of scattered bokeh]]
Setting CVar [[r.DOF.Recombine.Quality:1                ; cheap slight out of focus]]
Setting CVar [[r.DOF.Recombine.EnableBokehSettings:0    ; no bokeh simulation on slight out of focus]]
Setting CVar [[r.DOF.TemporalAAQuality:1                ; more stable temporal accumulation]]
Setting CVar [[r.DOF.Kernel.MaxForegroundRadius:0.025]]
Setting CVar [[r.DOF.Kernel.MaxBackgroundRadius:0.025]]
Applying CVar settings from Section [TextureQuality@3] File [D:/uk/TPS/Saved/Config/Windows/Scalability.ini]
Setting CVar [[r.Streaming.MipBias:0]]
Setting CVar [[r.Streaming.AmortizeCPUToGPUCopy:0]]
Setting CVar [[r.Streaming.MaxNumTexturesToStreamPerFrame:0]]
Setting CVar [[r.Streaming.Boost:1]]
Setting CVar [[r.MaxAnisotropy:8]]
Setting CVar [[r.VT.MaxAnisotropy:8]]
Setting CVar [[r.Streaming.LimitPoolSizeToVRAM:0]]
Setting CVar [[r.Streaming.PoolSize:1000]]
Setting CVar [[r.Streaming.MaxEffectiveScreenSize:0]]
Applying CVar settings from Section [EffectsQuality@3] File [D:/uk/TPS/Saved/Config/Windows/Scalability.ini]
Setting CVar [[r.TranslucencyLightingVolumeDim:64]]
Setting CVar [[r.RefractionQuality:2]]
Setting CVar [[r.SSR.Quality:3]]
Setting CVar [[r.SSR.HalfResSceneColor:0]]
Setting CVar [[r.SceneColorFormat:4]]
Setting CVar [[r.DetailMode:2]]
Setting CVar [[r.TranslucencyVolumeBlur:1]]
Setting CVar [[r.MaterialQualityLevel:1 ; High quality]]
Setting CVar [[r.AnisotropicMaterials:1]]
Setting CVar [[r.SSS.Scale:1]]
Setting CVar [[r.SSS.SampleSet:2]]
Setting CVar [[r.SSS.Quality:1]]
Setting CVar [[r.SSS.HalfRes:0]]
Setting CVar [[r.SSGI.Quality:3]]
Setting CVar [[r.EmitterSpawnRateScale:1.0]]
Setting CVar [[r.ParticleLightQuality:2]]
Setting CVar [[r.SkyAtmosphere.AerialPerspectiveLUT.FastApplyOnOpaque:1 ; Always have FastSkyLUT 1 in this case to avoid wrong sky]]
Setting CVar [[r.SkyAtmosphere.AerialPerspectiveLUT.SampleCountMaxPerSlice:4]]
Setting CVar [[r.SkyAtmosphere.AerialPerspectiveLUT.DepthResolution:16.0]]
Setting CVar [[r.SkyAtmosphere.FastSkyLUT:1]]
Setting CVar [[r.SkyAtmosphere.FastSkyLUT.SampleCountMin:4.0]]
Setting CVar [[r.SkyAtmosphere.FastSkyLUT.SampleCountMax:128.0]]
Setting CVar [[r.SkyAtmosphere.SampleCountMin:4.0]]
Setting CVar [[r.SkyAtmosphere.SampleCountMax:128.0]]
Setting CVar [[r.SkyAtmosphere.TransmittanceLUT.UseSmallFormat:0]]
Setting CVar [[r.SkyAtmosphere.TransmittanceLUT.SampleCount:10.0]]
Setting CVar [[r.SkyAtmosphere.MultiScatteringLUT.SampleCount:15.0]]
Setting CVar [[r.SkyLight.RealTimeReflectionCapture:1]]
Applying CVar settings from Section [FoliageQuality@3] File [D:/uk/TPS/Saved/Config/Windows/Scalability.ini]
Setting CVar [[foliage.DensityScale:1.0]]
Setting CVar [[grass.DensityScale:1.0]]
Applying CVar settings from Section [ShadingQuality@3] File [D:/uk/TPS/Saved/Config/Windows/Scalability.ini]
Setting CVar [[r.HairStrands.SkyLighting.IntegrationType:2]]
Setting CVar [[r.HairStrands.SkyAO.SampleCount:4]]
Setting CVar [[r.HairStrands.Visibility.MSAA.SamplePerPixel:4]]
Selected Device Profile: [Windows]
Applying CVar settings loaded from the selected device profile: [Windows]
Platform has ~ 32 GB [34304749568 / 34359738368 / 32], which maps to Largest [LargestMinGB=32, LargerMinGB=12, DefaultMinGB=8, SmallerMinGB=6, SmallestMinGB=0)
Going up to parent DeviceProfile []
Applying CVar settings from Section [ViewDistanceQuality@3] File [D:/uk/TPS/Saved/Config/Windows/Scalability.ini]
Setting CVar [[r.SkeletalMeshLODBias:0]]
Setting CVar [[r.ViewDistanceScale:1.0]]
Applying CVar settings from Section [AntiAliasingQuality@3] File [D:/uk/TPS/Saved/Config/Windows/Scalability.ini]
Setting CVar [[r.PostProcessAAQuality:4]]
Applying CVar settings from Section [ShadowQuality@3] File [D:/uk/TPS/Saved/Config/Windows/Scalability.ini]
Setting CVar [[r.LightFunctionQuality:1]]
Setting CVar [[r.ShadowQuality:5]]
Setting CVar [[r.Shadow.CSM.MaxCascades:10]]
Setting CVar [[r.Shadow.MaxResolution:2048]]
Setting CVar [[r.Shadow.MaxCSMResolution:2048]]
Setting CVar [[r.Shadow.RadiusThreshold:0.01]]
Setting CVar [[r.Shadow.DistanceScale:1.0]]
Setting CVar [[r.Shadow.CSM.TransitionScale:1.0]]
Setting CVar [[r.Shadow.PreShadowResolutionFactor:1.0]]
Setting CVar [[r.DistanceFieldShadowing:1]]
Setting CVar [[r.DistanceFieldAO:1]]
Setting CVar [[r.AOQuality:2]]
Setting CVar [[r.VolumetricFog:1]]
Setting CVar [[r.VolumetricFog.GridPixelSize:8]]
Setting CVar [[r.VolumetricFog.GridSizeZ:128]]
Setting CVar [[r.VolumetricFog.HistoryMissSupersampleCount:4]]
Setting CVar [[r.LightMaxDrawDistanceScale:1]]
Setting CVar [[r.CapsuleShadows:1]]
Applying CVar settings from Section [PostProcessQuality@3] File [D:/uk/TPS/Saved/Config/Windows/Scalability.ini]
Setting CVar [[r.MotionBlurQuality:4]]
Setting CVar [[r.AmbientOcclusionMipLevelFactor:0.4]]
Setting CVar [[r.AmbientOcclusionMaxQuality:100]]
Setting CVar [[r.AmbientOcclusionLevels:-1]]
Setting CVar [[r.AmbientOcclusionRadiusScale:1.0]]
Setting CVar [[r.DepthOfFieldQuality:2]]
Setting CVar [[r.RenderTargetPoolMin:400]]
Setting CVar [[r.LensFlareQuality:2]]
Setting CVar [[r.SceneColorFringeQuality:1]]
Setting CVar [[r.EyeAdaptationQuality:2]]
Setting CVar [[r.BloomQuality:5]]
Setting CVar [[r.FastBlurThreshold:100]]
Setting CVar [[r.Upscale.Quality:3]]
Setting CVar [[r.Tonemapper.GrainQuantization:1]]
Setting CVar [[r.LightShaftQuality:1]]
Setting CVar [[r.Filter.SizeScale:1]]
Setting CVar [[r.Tonemapper.Quality:5]]
Setting CVar [[r.DOF.Gather.AccumulatorQuality:1        ; higher gathering accumulator quality]]
Setting CVar [[r.DOF.Gather.PostfilterMethod:1          ; Median3x3 postfilering method]]
Setting CVar [[r.DOF.Gather.EnableBokehSettings:0       ; no bokeh simulation when gathering]]
Setting CVar [[r.DOF.Gather.RingCount:4                 ; medium number of samples when gathering]]
Setting CVar [[r.DOF.Scatter.ForegroundCompositing:1    ; additive foreground scattering]]
Setting CVar [[r.DOF.Scatter.BackgroundCompositing:2    ; additive background scattering]]
Setting CVar [[r.DOF.Scatter.EnableBokehSettings:1      ; bokeh simulation when scattering]]
Setting CVar [[r.DOF.Scatter.MaxSpriteRatio:0.1         ; only a maximum of 10% of scattered bokeh]]
Setting CVar [[r.DOF.Recombine.Quality:1                ; cheap slight out of focus]]
Setting CVar [[r.DOF.Recombine.EnableBokehSettings:0    ; no bokeh simulation on slight out of focus]]
Setting CVar [[r.DOF.TemporalAAQuality:1                ; more stable temporal accumulation]]
Setting CVar [[r.DOF.Kernel.MaxForegroundRadius:0.025]]
Setting CVar [[r.DOF.Kernel.MaxBackgroundRadius:0.025]]
Applying CVar settings from Section [TextureQuality@3] File [D:/uk/TPS/Saved/Config/Windows/Scalability.ini]
Setting CVar [[r.Streaming.MipBias:0]]
Setting CVar [[r.Streaming.AmortizeCPUToGPUCopy:0]]
Setting CVar [[r.Streaming.MaxNumTexturesToStreamPerFrame:0]]
Setting CVar [[r.Streaming.Boost:1]]
Setting CVar [[r.MaxAnisotropy:8]]
Setting CVar [[r.VT.MaxAnisotropy:8]]
Setting CVar [[r.Streaming.LimitPoolSizeToVRAM:0]]
Setting CVar [[r.Streaming.PoolSize:1000]]
Setting CVar [[r.Streaming.MaxEffectiveScreenSize:0]]
Applying CVar settings from Section [EffectsQuality@3] File [D:/uk/TPS/Saved/Config/Windows/Scalability.ini]
Setting CVar [[r.TranslucencyLightingVolumeDim:64]]
Setting CVar [[r.RefractionQuality:2]]
Setting CVar [[r.SSR.Quality:3]]
Setting CVar [[r.SSR.HalfResSceneColor:0]]
Setting CVar [[r.SceneColorFormat:4]]
Setting CVar [[r.DetailMode:2]]
Setting CVar [[r.TranslucencyVolumeBlur:1]]
Setting CVar [[r.MaterialQualityLevel:1 ; High quality]]
Setting CVar [[r.AnisotropicMaterials:1]]
Setting CVar [[r.SSS.Scale:1]]
Setting CVar [[r.SSS.SampleSet:2]]
Setting CVar [[r.SSS.Quality:1]]
Setting CVar [[r.SSS.HalfRes:0]]
Setting CVar [[r.SSGI.Quality:3]]
Setting CVar [[r.EmitterSpawnRateScale:1.0]]
Setting CVar [[r.ParticleLightQuality:2]]
Setting CVar [[r.SkyAtmosphere.AerialPerspectiveLUT.FastApplyOnOpaque:1 ; Always have FastSkyLUT 1 in this case to avoid wrong sky]]
Setting CVar [[r.SkyAtmosphere.AerialPerspectiveLUT.SampleCountMaxPerSlice:4]]
Setting CVar [[r.SkyAtmosphere.AerialPerspectiveLUT.DepthResolution:16.0]]
Setting CVar [[r.SkyAtmosphere.FastSkyLUT:1]]
Setting CVar [[r.SkyAtmosphere.FastSkyLUT.SampleCountMin:4.0]]
Setting CVar [[r.SkyAtmosphere.FastSkyLUT.SampleCountMax:128.0]]
Setting CVar [[r.SkyAtmosphere.SampleCountMin:4.0]]
Setting CVar [[r.SkyAtmosphere.SampleCountMax:128.0]]
Setting CVar [[r.SkyAtmosphere.TransmittanceLUT.UseSmallFormat:0]]
Setting CVar [[r.SkyAtmosphere.TransmittanceLUT.SampleCount:10.0]]
Setting CVar [[r.SkyAtmosphere.MultiScatteringLUT.SampleCount:15.0]]
Setting CVar [[r.SkyLight.RealTimeReflectionCapture:1]]
Applying CVar settings from Section [FoliageQuality@3] File [D:/uk/TPS/Saved/Config/Windows/Scalability.ini]
Setting CVar [[foliage.DensityScale:1.0]]
Setting CVar [[grass.DensityScale:1.0]]
Applying CVar settings from Section [ShadingQuality@3] File [D:/uk/TPS/Saved/Config/Windows/Scalability.ini]
Setting CVar [[r.HairStrands.SkyLighting.IntegrationType:2]]
Setting CVar [[r.HairStrands.SkyAO.SampleCount:4]]
Setting CVar [[r.HairStrands.Visibility.MSAA.SamplePerPixel:4]]
Applying CVar settings from Section [Startup] File [../../../Engine/Config/ConsoleVariables.ini]
Setting CVar [[net.UseAdaptiveNetUpdateFrequency:0]]
Setting CVar [[p.chaos.AllowCreatePhysxBodies:1]]
Setting CVar [[fx.SkipVectorVMBackendOptimizations:1]]
Applying CVar settings from Section [ConsoleVariables] File [D:/uk/TPS/Saved/Config/Windows/Engine.ini]
Applying CVar settings from Section [ConsoleVariables] File [D:/uk/TPS/Saved/Config/Windows/Editor.ini]
Computer: DESKTOP-DOFHVAO
User: 1
CPU Page size=4096, Cores=4
High frequency timer resolution =10.000000 MHz
Memory total: Physical=31.9GB (32GB approx)
Platform Memory Stats for Windows
Process Physical Memory: 144.15 MB used, 144.16 MB peak
Process Virtual Memory: 114.26 MB used, 114.26 MB peak
Physical Memory: 10258.69 MB used,  22456.87 MB free, 32715.56 MB total
Virtual Memory: 134194376.00 MB used,  23354.91 MB free, 134217728.00 MB total
WindowsPlatformFeatures enabled
Physics initialised using underlying interface: PhysX
Using OS detected language (ru-RU).
Using OS detected locale (ru-RU).
No specific localization for 'ru-RU' exists, so the 'ru' localization will be used.
LocRes '../../../Engine/Content/Localization/Editor/ru/Editor.locres' could not be opened for reading!
LocRes '../../../Engine/Content/Localization/EditorTutorials/ru/EditorTutorials.locres' could not be opened for reading!
LocRes '../../../Engine/Content/Localization/Keywords/ru/Keywords.locres' could not be opened for reading!
LocRes '../../../Engine/Content/Localization/Category/ru/Category.locres' could not be opened for reading!
LocRes '../../../Engine/Content/Localization/ToolTips/ru/ToolTips.locres' could not be opened for reading!
LocRes '../../../Engine/Content/Localization/PropertyNames/ru/PropertyNames.locres' could not be opened for reading!
LocRes '../../../Engine/Content/Localization/Engine/ru/Engine.locres' could not be opened for reading!
Setting process to per monitor DPI aware
IME system deactivated.
New Slate User Created.  User Index 0, Is Virtual User: 0
Slate User Registered.  User Index 0, Is Virtual User: 0
Loaded GFSDK_Aftermath_Lib.x64.dll
Failed to initialize OpenVR with code 110
D3D11 min allowed feature level: 11_0
D3D11 max allowed feature level: 11_0
D3D11 adapters:
   0. 'NVIDIA GeForce GTX 1060 6GB' (Feature Level 11_0)
      6043/0/16357 MB DedicatedVideo/DedicatedSystem/SharedSystem, Outputs:1, VendorId:0x10de
   1. 'Microsoft Basic Render Driver' (Feature Level 11_0)
      0/0/16357 MB DedicatedVideo/DedicatedSystem/SharedSystem, Outputs:0, VendorId:0x1414
Chosen D3D11 Adapter:
    Description : NVIDIA GeForce GTX 1060 6GB
    VendorId    : 10de
    DeviceId    : 1c03
    SubSysId    : 85b71043
    Revision    : 00a1
    DedicatedVideoMemory : 6336544768 bytes
    DedicatedSystemMemory : 0 bytes
    SharedSystemMemory : 17152374784 bytes
    AdapterLuid : 0 34357
Creating new Direct3DDevice
    GPU DeviceId: 0x1c03 (for the marketing name, search the web for "GPU Device Id")
EnumDisplayDevices:
   0. 'NVIDIA GeForce GTX 1060 6GB' (P:1 D:1)
   1. 'NVIDIA GeForce GTX 1060 6GB' (P:0 D:0)
   2. 'NVIDIA GeForce GTX 1060 6GB' (P:0 D:0)
   3. 'NVIDIA GeForce GTX 1060 6GB' (P:0 D:0)
DebugString: FoundDriverCount:4 
    Adapter Name: NVIDIA GeForce GTX 1060 6GB
  Driver Version: 536.23 (internal:31.0.15.3623, unified:536.23)
     Driver Date: 6-8-2023
Texture pool is 4230 MB (70% of 6043 MB)
Creating D3DDevice using adapter:
    Description : NVIDIA GeForce GTX 1060 6GB
    VendorId    : 10de
    DeviceId    : 1c03
    SubSysId    : 85b71043
    Revision    : 00a1
    DedicatedVideoMemory : 6336544768 bytes
    DedicatedSystemMemory : 0 bytes
    SharedSystemMemory : 17152374784 bytes
    AdapterLuid : 0 34357
RHI has support for 64 bit atomics
Async texture creation enabled
Array index from any shader is supported
HDR output is supported on display 0 (NvId: 0x80061081).
GPU Timing Frequency: 1000.000000 (Debug: 2 1)
GeForceNow SDK initialized: 1
Loaded TargetPlatform 'AllDesktop'
Loaded TargetPlatform 'Android'
Loaded TargetPlatform 'Android_ASTC'
Loaded TargetPlatform 'Android_DXT'
Loaded TargetPlatform 'Android_ETC2'
Loaded TargetPlatform 'AndroidClient'
Loaded TargetPlatform 'Android_ASTCClient'
Loaded TargetPlatform 'Android_DXTClient'
Loaded TargetPlatform 'Android_ETC2Client'
Loaded TargetPlatform 'Android_Multi'
Loaded TargetPlatform 'Android_MultiClient'
Loaded TargetPlatform 'IOSClient'
Loaded TargetPlatform 'IOS'
Loaded TargetPlatform 'Linux'
Loaded TargetPlatform 'LinuxNoEditor'
Loaded TargetPlatform 'LinuxClient'
Loaded TargetPlatform 'LinuxServer'
Loaded TargetPlatform 'LinuxAArch64NoEditor'
Loaded TargetPlatform 'LinuxAArch64Client'
Loaded TargetPlatform 'LinuxAArch64Server'
Loaded TargetPlatform 'Lumin'
Loaded TargetPlatform 'LuminClient'
Loaded TargetPlatform 'MacNoEditor'
Loaded TargetPlatform 'Mac'
Loaded TargetPlatform 'MacClient'
Loaded TargetPlatform 'MacServer'
Loaded TargetPlatform 'TVOSClient'
Loaded TargetPlatform 'TVOS'
Loaded TargetPlatform 'WindowsNoEditor'
Loaded TargetPlatform 'Windows'
Loaded TargetPlatform 'WindowsClient'
Loaded TargetPlatform 'WindowsServer'
Building Assets For Windows
Lib vorbis DLL was dynamically loaded.
Oodle Texture 2.9.0 init RDO Off
Ray tracing is disabled. Reason: r.RayTracing=0.
Guid format shader working directory is 23 characters bigger than the processId version (../../../../uk/TPS/Intermediate/Shaders/WorkingDirectory/70020/).
Cleaned the shader compiler working directory 'C:/Users/1/AppData/Local/Temp/UnrealShaderWorkingDir/3DE348C3407FF44CB542BDBAE1000425/'.
Cannot use XGE Controller as Incredibuild is not installed on this machine.
Cannot use XGE Shader Compiler as Incredibuild is not installed on this machine.
Using Local Shader Compiler.
Max Cache Size: 512 MB
Loaded boot cache 0.32s 104MB C:/Users/1/AppData/Local/UnrealEngine/4.27/DerivedDataCache/Boot.ddc.
Loaded Boot cache: C:/Users/1/AppData/Local/UnrealEngine/4.27/DerivedDataCache/Boot.ddc
FDerivedDataBackendGraph:  Pak pak cache file ../../../../uk/TPS/DerivedDataCache/DDC.ddp not found, will not use a pak cache.
Unable to find inner node Pak for hierarchical cache Hierarchy.
FDerivedDataBackendGraph:  CompressedPak pak cache file ../../../../uk/TPS/DerivedDataCache/Compressed.ddp not found, will not use a pak cache.
Unable to find inner node CompressedPak for hierarchical cache Hierarchy.
Pak cache opened for reading ../../../Engine/DerivedDataCache/Compressed.ddp.
FDerivedDataBackendGraph:  EnterprisePak pak cache file ../../../Enterprise/DerivedDataCache/Compressed.ddp not found, will not use a pak cache.
Unable to find inner node EnterprisePak for hierarchical cache Hierarchy.
Speed tests for C:/Users/1/AppData/Local/UnrealEngine/Common/DerivedDataCache took 0.07 seconds
Performance to C:/Users/1/AppData/Local/UnrealEngine/Common/DerivedDataCache: Latency=0.21ms. RandomReadSpeed=16.75MBs, RandomWriteSpeed=131.49MBs. Assigned SpeedClass 'Local'
Using Local data cache path C:/Users/1/AppData/Local/UnrealEngine/Common/DerivedDataCache: Writable
Shared data cache path not found in *engine.ini, will not use an Shared cache.
Unable to find inner node Shared for hierarchical cache Hierarchy.
Using FreeType 2.10.0
SlateFontServices - WITH_FREETYPE: 1, WITH_HARFBUZZ: 1
FAssetRegistry took 0.0151 seconds to start up
Selected Device Profile: [Windows]
Active device profile: [000001A1F1D42D00][000001A1E4510A40 49] Windows
Profiles: [000001A1F1D42D00][000001A1E4510A40 49] Windows, [000001A1F1CEA100][000001A1E78D8BC0 49] WindowsNoEditor, [000001A1F1D42100][000001A1E78DCD40 49] WindowsServer, [000001A1F1CEAC00][000001A1E78E0EC0 49] WindowsClient, [000001A1F1D41600][000001A1EF073040 49] IOS, [000001A1F1CE9F00][000001A1EF0771C0 49] iPadAir, [000001A1F1D42400][000001A1EF07B340 49] iPadAir2, [000001A1F1C8E200][000001A1EF083600 49] IPadPro, [000001A1F1C8E300][000001A1EF07F640 49] iPadAir3, [000001A1F1CEB000][000001A1EF0877C0 49] iPadAir4, [000001A1F1C8F100][000001A1EF08B940 49] iPadMini2, [000001A1F1CEA700][000001A1D1AC9AC0 49] iPadMini3, [000001A1F1C8FD00][000001A1D1ACC0C0 49] iPadMini4, [000001A1F1CE9E00][000001A1D1AD0240 49] iPadMini5, [000001A1F1CCDB00][000001A1D1AD8500 49] iPhone6, [000001A1F1CCDC00][000001A1D1AD4540 49] iPodTouch6, [000001A1F1D42C00][000001A1D1ADC780 49] iPhone7, [000001A1F1D42800][000001A1E78D47C0 49] iPodTouch7, [000001A1F1C8DF00][000001A1D1AE0900 49] iPhone5S, [000001A1F1D40100][000001A1D1AE8A80 49] iPhone6Plus, [000001A1F1C8DA00][000001A1D1AECC00 49] iPhone6S, [000001A1F1D43700][000001A1D1AF0D80 49] iPhone6SPlus, [000001A1F1C8D600][000001A1D1AF4F00 49] iPhone7Plus, [000001A1F1D43400][000001A1F0ABF080 49] iPhoneSE, [000001A1F1C8D400][000001A1F0AC3200 49] iPhone8, [000001A1F1D43300][000001A1F0AC7380 49] iPhone8Plus, [000001A1F1CCC400][000001A1F0ACB500 49] iPhoneX, [000001A1F1C8C300][000001A1F0ACF680 49] iPhoneXS, [000001A1F1CCCE00][000001A1F0AD3800 49] iPhoneXSMax, [000001A1F1C8E700][000001A1F0AD7980 49] iPhoneXR, [000001A1F1CCD800][000001A1F0ADBB00 49] iPhone11, [000001A1F1C8EA00][000001A1F0ADE100 49] iPhone11Pro, [000001A1F1CCFB00][000001A1F0AE2280 49] iPhone11ProMax, [000001A1F1C8C200][000001A1F0AE6400 49] iPhoneSE2, [000001A1F1CCF600][000001A1F0AEA580 49] iPhone12Mini, [000001A1F1C8C900][000001A1F0AEE700 49] iPhone12, [000001A1F1CCF200][000001A1D1AE4840 49] iPhone12Pro, [000001A1F1C8C500][000001A1F0AF2980 49] iPhone12ProMax, [000001A1F1CCF100][000001A1F0AF6AC0 49] iPadPro105, [000001A1F1C8C600][000001A1EEEA2C40 49] iPadPro129, [000001A1F1D43D00][000001A1EEEA6DC0 49] iPadPro97, [000001A1F1C8C800][000001A1EEEAAF40 49] iPadPro2_129, [000001A1F1D43000][000001A1EEEAF0C0 49] iPad5, [000001A1F1C8CD00][000001A1EEEB3240 49] iPad6, [000001A1F1D42700][000001A1EEEB73C0 49] iPad7, [000001A1F1C8E800][000001A1EEEBB540 49] iPad8, [000001A1F1D41100][000001A1EEEBF6C0 49] iPadPro11, [000001A1F1C8FB00][000001A1EEEC3840 49] iPadPro2_11, [000001A1F1D40D00][000001A1EEEC79C0 49] iPadPro3_129, [000001A1F1C8EF00][000001A1EEECBB40 49] iPadPro4_129, [000001A1F1D40800][000001A1EEECE140 49] AppleTV, [000001A1F1C8D200][000001A1EEED22C0 49] AppleTV4K, [000001A1F1D41500][000001A1EEED6440 49] TVOS, [000001A1F1C8FA00][000001A1EEEDA5C0 49] Mac, [000001A1F1D40500][000001A1EEEDE740 49] MacClient, [000001A1F1C8F200][000001A1EEEE28C0 49] MacNoEditor, [000001A1F1D40C00][000001A1F0AFAA00 49] MacServer, [000001A1F1C8E000][000001A1EEEE6B40 49] Linux, [000001A1F1D40A00][000001A1EEEEAC80 49] LinuxAArch64, [000001A1F1C8E100][000001A1EEEEEDC0 49] LinuxNoEditor, [000001A1F1D41D00][000001A1EEEF6F40 49] LinuxAArch64NoEditor, [000001A1F1C8CF00][000001A1EEEFB0C0 49] LinuxClient, [000001A1F1D40F00][000001A1EEEFF240 49] LinuxAArch64Client, [000001A1F1C8F000][000001A1EEF033C0 49] LinuxServer, [000001A1F1D41F00][000001A1EEF07540 49] LinuxAArch64Server, [000001A1F1C8CA00][000001A1EEF0B6C0 49] Android, [000001A1F1D43500][000001A1F2B11840 49] Android_Low, [000001A1F1C8D700][000001A1F2B159C0 49] Android_Mid, [000001A1F1D43200][000001A1F2B19B40 49] Android_High, [000001A1F1C8D500][000001A1F2B1C140 49] Android_Default, [000001A1F1D42000][000001A1F2B202C0 49] Android_Adreno4xx, [000001A1F1C8FC00][000001A1F2B24440 49] Android_Adreno5xx_Low, [000001A1F1D42500][000001A1F2B285C0 49] Android_Adreno5xx, [000001A1F1C8D300][000001A1F2B2C740 49] Android_Adreno6xx, [000001A1F1D43900][000001A1F2B308C0 49] Android_Adreno6xx_Vulkan, [000001A1F1C8C700][000001A1F2B34A40 49] Android_Mali_T6xx, [000001A1F1D43100][000001A1EEEF2B80 49] Android_Mali_T7xx, [000001A1F1C8F300][000001A1F2B38CC0 49] Android_Mali_T8xx, [000001A1F1D42900][000001A1F2B3CE00 49] Android_Mali_G71, [000001A1F1C8CE00][000001A1F2B40F40 49] Android_Mali_G72, [000001A1F1D41200][000001A1F2B490C0 49] Android_Mali_G72_Vulkan, [000001A1F1C8F800][000001A1F2B4D240 49] Android_Mali_G76, [000001A1F1D41300][000001A1F2B513C0 49] Android_Mali_G76_Vulkan, [000001A1F1C8FF00][000001A1F2B55540 49] Android_Mali_G77, [000001A1F1D41C00][000001A1F2B596C0 49] Android_Mali_G77_Vulkan, [000001A1F1CEA000][000001A1F2B5D840 49] Android_Mali_G78, [000001A1F1CCD600][000001A1F2B619C0 49] Android_Mali_G78_Vulkan, [000001A1F1CEBF00][000001A1F2B65B40 49] Android_Mali_G710, [000001A1F1CCCA00][000001A1F2B68140 49] Android_Mali_G710_Vulkan, [000001A1F1CEB900][000001A1F2B6C2C0 49] Android_Vulkan_SM5, [000001A1F1CCCC00][000001A1F2B70440 49] Android_PowerVR_G6xxx, [000001A1F1CEBA00][000001A1F2B745C0 49] Android_PowerVR_GT7xxx, [000001A1F1CCCD00][000001A1F2B78740 49] Android_PowerVR_GE8xxx, [000001A1F1CEA500][000001A1F2B7C8C0 49] Android_PowerVR_GM9xxx, [000001A1F1CCF000][000001A1F2B80A40 49] Android_PowerVR_GM9xxx_Vulkan, [000001A1F1CEAE00][000001A1F2B84BC0 49] Android_TegraK1, [000001A1F1CCCB00][000001A1F2B88D40 49] Android_Unknown_Vulkan, [000001A1F1CE9B00][000001A1F2B44E80 49] Lumin, [000001A1F1CCE500][000001A1F2B8CFC0 49] Lumin_Desktop, [000001A1F1CEA900][000001A1F2B91100 49] HoloLens, 
Using QuadricMeshReduction for automatic static mesh reduction
Using SimplygonMeshReduction for automatic skeletal mesh reduction
Using ProxyLODMeshReduction for automatic mesh merging
No distributed automatic mesh merging module available
No distributed automatic mesh merging module available
TPS 1.0.0, NetCL: 17155196, EngineNetVer: 17, GameNetVer: 0 (Checksum: 2361317319)
Default maximum texture size for cubemaps generated from long-lat sources has been changed from 512 to unlimited. In order to preserve old behaiour for '/Engine/MapTemplates/Sky/DaylightAmbientCubemap.DaylightAmbientCubemap', its maximum texture size has been explicitly set to 512.
PokeAHoleMaterial loaded successfully
17178 objects as part of root set at end of initial load.
4302048 out of 0 bytes used by permanent object pool.
CloseDisregardForGC: 0/0 objects in disregard for GC pool
Niagara Debugger Client Initialized | Session: C9D8BF734CCC6D76367C98A8071D6D42 | Instance: 86F5105C4FF0D38212B35EAC0CAFC27D (DESKTOP-DOFHVAO-70020).
Initializing bridge on interface 0.0.0.0:0 to multicast group 230.0.0.1:6666.
Initializing TcpMessaging bridge
Using Python 3.7.7


Script Stack (0 frames):

FPlatformStackWalk::StackWalkAndDump -  0.372 s
=== Handled ensure: ===

Ensure condition failed: this->IsBound() [File:D:\UE_4.27\Engine\Source\Runtime\Core\Public\Delegates/DelegateSignatureImpl.inl] [Line: 1028]
Unable to bind delegate to 'BulletCollisionSphereHit' (function might not be marked as a UFUNCTION or object may be pending kill)
Stack: 
[Callstack] 0x00007ffa5f321198 UE4Editor-TPS.dll!DispatchCheckVerify<bool,<lambda_42fd2c925bfb50a81fc4707a65fce9ad> >() [D:\UE_4.27\Engine\Source\Runtime\Core\Public\Misc\AssertionMacros.h:164]
[Callstack] 0x00007ffa5f312a7f UE4Editor-TPS.dll!AProjectileDefault::AProjectileDefault() [D:\uk\TPS\Source\TPS\ProjectileDefault.cpp:16]
[Callstack] 0x00007ffa92ff61d3 UE4Editor-CoreUObject.dll!UnknownFunction []
[Callstack] 0x00007ffa93318faf UE4Editor-CoreUObject.dll!UnknownFunction []
[Callstack] 0x00007ffa932f5411 UE4Editor-CoreUObject.dll!UnknownFunction []
[Callstack] 0x00007ffa931bddc5 UE4Editor-CoreUObject.dll!UnknownFunction []
[Callstack] 0x00007ffa91d11bea UE4Editor-Core.dll!UnknownFunction []
[Callstack] 0x00007ffa91d315a3 UE4Editor-Core.dll!UnknownFunction []
[Callstack] 0x00007ffae01d6433 UE4Editor-Projects.dll!UnknownFunction []
[Callstack] 0x00007ffae01d674f UE4Editor-Projects.dll!UnknownFunction []
[Callstack] 0x00007ff6a6215642 UE4Editor.exe!UnknownFunction []
[Callstack] 0x00007ff6a6219000 UE4Editor.exe!UnknownFunction []
[Callstack] 0x00007ff6a6210d2c UE4Editor.exe!UnknownFunction []
[Callstack] 0x00007ff6a62110ba UE4Editor.exe!UnknownFunction []
[Callstack] 0x00007ff6a62140dd UE4Editor.exe!UnknownFunction []
[Callstack] 0x00007ff6a6225984 UE4Editor.exe!UnknownFunction []
[Callstack] 0x00007ff6a622853a UE4Editor.exe!UnknownFunction []
[Callstack] 0x00007ffae8ed7614 KERNEL32.DLL!UnknownFunction []
[Callstack] 0x00007ffae9de26b1 ntdll.dll!UnknownFunction []

               SubmitErrorReport -  0.000 s
                   SendNewReport -  1.696 s
            FDebug::EnsureFailed -  2.105 s


Script Stack (0 frames):

FPlatformStackWalk::StackWalkAndDump -  0.022 s
=== Handled ensure: ===

Ensure condition failed: this->IsBound() [File:D:\UE_4.27\Engine\Source\Runtime\Core\Public\Delegates/DelegateSignatureImpl.inl] [Line: 1028]
Unable to bind delegate to 'BulletCollisionSphereBeginOverlap' (function might not be marked as a UFUNCTION or object may be pending kill)
Stack: 
[Callstack] 0x00007ffa5f3210e8 UE4Editor-TPS.dll!DispatchCheckVerify<bool,<lambda_036f07b7f534a52725c81b3aed613180> >() [D:\UE_4.27\Engine\Source\Runtime\Core\Public\Misc\AssertionMacros.h:164]
[Callstack] 0x00007ffa5f312c72 UE4Editor-TPS.dll!AProjectileDefault::AProjectileDefault() [D:\uk\TPS\Source\TPS\ProjectileDefault.cpp:17]
[Callstack] 0x00007ffa92ff61d3 UE4Editor-CoreUObject.dll!UnknownFunction []
[Callstack] 0x00007ffa93318faf UE4Editor-CoreUObject.dll!UnknownFunction []
[Callstack] 0x00007ffa932f5411 UE4Editor-CoreUObject.dll!UnknownFunction []
[Callstack] 0x00007ffa931bddc5 UE4Editor-CoreUObject.dll!UnknownFunction []
[Callstack] 0x00007ffa91d11bea UE4Editor-Core.dll!UnknownFunction []
[Callstack] 0x00007ffa91d315a3 UE4Editor-Core.dll!UnknownFunction []
[Callstack] 0x00007ffae01d6433 UE4Editor-Projects.dll!UnknownFunction []
[Callstack] 0x00007ffae01d674f UE4Editor-Projects.dll!UnknownFunction []
[Callstack] 0x00007ff6a6215642 UE4Editor.exe!UnknownFunction []
[Callstack] 0x00007ff6a6219000 UE4Editor.exe!UnknownFunction []
[Callstack] 0x00007ff6a6210d2c UE4Editor.exe!UnknownFunction []
[Callstack] 0x00007ff6a62110ba UE4Editor.exe!UnknownFunction []
[Callstack] 0x00007ff6a62140dd UE4Editor.exe!UnknownFunction []
[Callstack] 0x00007ff6a6225984 UE4Editor.exe!UnknownFunction []
[Callstack] 0x00007ff6a622853a UE4Editor.exe!UnknownFunction []
[Callstack] 0x00007ffae8ed7614 KERNEL32.DLL!UnknownFunction []
[Callstack] 0x00007ffae9de26b1 ntdll.dll!UnknownFunction []

               SubmitErrorReport -  0.000 s
